<?xml version="1.0" encoding="UTF-8" standalone="no"?>
<!-- Created with Inkscape (http://www.inkscape.org/) -->

<svg
   xmlns:dc="http://purl.org/dc/elements/1.1/"
   xmlns:cc="http://creativecommons.org/ns#"
   xmlns:rdf="http://www.w3.org/1999/02/22-rdf-syntax-ns#"
   xmlns:svg="http://www.w3.org/2000/svg"
   xmlns="http://www.w3.org/2000/svg"
   xmlns:sodipodi="http://sodipodi.sourceforge.net/DTD/sodipodi-0.dtd"
   xmlns:inkscape="http://www.inkscape.org/namespaces/inkscape"
   width="337.42325"
   height="174.0545"
   viewBox="0 0 89.276566 46.051921"
   version="1.1"
   id="svg8"
   inkscape:version="0.92.1 r15371"
   sodipodi:docname="memory-layout-example2.svg">
  <defs
     id="defs2">
    <marker
       inkscape:stockid="StopL"
       orient="auto"
       refY="0"
       refX="0"
       id="StopL"
       style="overflow:visible"
       inkscape:isstock="true">
      <path
         id="path4857"
         d="M 0,5.65 V -5.65"
         style="fill:none;fill-opacity:0.75;fill-rule:evenodd;stroke:#000000;stroke-width:1.00000003pt;stroke-opacity:1"
         transform="scale(0.8)"
         inkscape:connector-curvature="0" />
    </marker>
    <marker
       inkscape:stockid="StopL"
       orient="auto"
       refY="0"
       refX="0"
       id="StopL-3"
       style="overflow:visible"
       inkscape:isstock="true">
      <path
         inkscape:connector-curvature="0"
         id="path4857-8"
         d="M 0,5.65 V -5.65"
         style="fill:none;fill-opacity:0.75;fill-rule:evenodd;stroke:#000000;stroke-width:1.00000003pt;stroke-opacity:1"
         transform="scale(0.8)" />
    </marker>
    <marker
       inkscape:stockid="StopL"
       orient="auto"
       refY="0"
       refX="0"
       id="marker5024"
       style="overflow:visible"
       inkscape:isstock="true">
      <path
         inkscape:connector-curvature="0"
         id="path5022"
         d="M 0,5.65 V -5.65"
         style="fill:none;fill-opacity:0.75;fill-rule:evenodd;stroke:#000000;stroke-width:1.00000003pt;stroke-opacity:1"
         transform="scale(0.8)" />
    </marker>
    <marker
       inkscape:stockid="StopL"
       orient="auto"
       refY="0"
       refX="0"
       id="StopL-3-1"
       style="overflow:visible"
       inkscape:isstock="true">
      <path
         inkscape:connector-curvature="0"
         id="path4857-8-3"
         d="M 0,5.65 V -5.65"
         style="fill:none;fill-opacity:0.75;fill-rule:evenodd;stroke:#000000;stroke-width:1.00000003pt;stroke-opacity:1"
         transform="scale(0.8)" />
    </marker>
    <marker
       inkscape:stockid="StopL"
       orient="auto"
       refY="0"
       refX="0"
       id="marker5389"
       style="overflow:visible"
       inkscape:isstock="true">
      <path
         inkscape:connector-curvature="0"
         id="path5387"
         d="M 0,5.65 V -5.65"
         style="fill:none;fill-opacity:0.75;fill-rule:evenodd;stroke:#000000;stroke-width:1.00000003pt;stroke-opacity:1"
         transform="scale(0.8)" />
    </marker>
    <marker
       inkscape:stockid="StopL"
       orient="auto"
       refY="0"
       refX="0"
       id="StopL-5"
       style="overflow:visible"
       inkscape:isstock="true">
      <path
         inkscape:connector-curvature="0"
         id="path4857-89"
         d="M 0,5.65 V -5.65"
         style="fill:none;fill-opacity:0.75;fill-rule:evenodd;stroke:#000000;stroke-width:1.00000003pt;stroke-opacity:1"
         transform="scale(0.8)" />
    </marker>
    <marker
       inkscape:stockid="StopL"
       orient="auto"
       refY="0"
       refX="0"
       id="marker5770"
       style="overflow:visible"
       inkscape:isstock="true">
      <path
         inkscape:connector-curvature="0"
         id="path5768"
         d="M 0,5.65 V -5.65"
         style="fill:none;fill-opacity:0.75;fill-rule:evenodd;stroke:#000000;stroke-width:1.00000003pt;stroke-opacity:1"
         transform="scale(0.8)" />
    </marker>
    <marker
       inkscape:stockid="StopL"
       orient="auto"
       refY="0"
       refX="0"
       id="StopL-5-5"
       style="overflow:visible"
       inkscape:isstock="true">
      <path
         inkscape:connector-curvature="0"
         id="path4857-89-6"
         d="M 0,5.65 V -5.65"
         style="fill:none;fill-opacity:0.75;fill-rule:evenodd;stroke:#000000;stroke-width:1.00000003pt;stroke-opacity:1"
         transform="scale(0.8)" />
    </marker>
    <marker
       inkscape:stockid="StopL"
       orient="auto"
       refY="0"
       refX="0"
       id="marker6263"
       style="overflow:visible"
       inkscape:isstock="true">
      <path
         inkscape:connector-curvature="0"
         id="path6261"
         d="M 0,5.65 V -5.65"
         style="fill:none;fill-opacity:0.75;fill-rule:evenodd;stroke:#000000;stroke-width:1.00000003pt;stroke-opacity:1"
         transform="scale(0.8)" />
    </marker>
    <marker
       inkscape:stockid="StopL"
       orient="auto"
       refY="0"
       refX="0"
       id="StopL-3-8"
       style="overflow:visible"
       inkscape:isstock="true">
      <path
         inkscape:connector-curvature="0"
         id="path4857-8-0"
         d="M 0,5.65 V -5.65"
         style="fill:none;fill-opacity:0.75;fill-rule:evenodd;stroke:#000000;stroke-width:1.00000003pt;stroke-opacity:1"
         transform="scale(0.8)" />
    </marker>
    <marker
       inkscape:stockid="StopL"
       orient="auto"
       refY="0"
       refX="0"
       id="marker4639"
       style="overflow:visible"
       inkscape:isstock="true">
      <path
         inkscape:connector-curvature="0"
         id="path4637"
         d="M 0,5.65 V -5.65"
         style="fill:none;fill-opacity:0.75;fill-rule:evenodd;stroke:#000000;stroke-width:1.00000003pt;stroke-opacity:1"
         transform="scale(0.8)" />
    </marker>
    <marker
       inkscape:stockid="StopL"
       orient="auto"
       refY="0"
       refX="0"
       id="StopL-3-8-9"
       style="overflow:visible"
       inkscape:isstock="true">
      <path
         inkscape:connector-curvature="0"
         id="path4857-8-0-2"
         d="M 0,5.65 V -5.65"
         style="fill:none;fill-opacity:0.75;fill-rule:evenodd;stroke:#000000;stroke-width:1.00000003pt;stroke-opacity:1"
         transform="scale(0.8)" />
    </marker>
    <marker
       inkscape:stockid="StopL"
       orient="auto"
       refY="0"
       refX="0"
       id="marker7081"
       style="overflow:visible"
       inkscape:isstock="true">
      <path
         inkscape:connector-curvature="0"
         id="path7079"
         d="M 0,5.65 V -5.65"
         style="fill:none;fill-opacity:0.75;fill-rule:evenodd;stroke:#000000;stroke-width:1.00000003pt;stroke-opacity:1"
         transform="scale(0.8)" />
    </marker>
    <marker
       inkscape:stockid="StopL"
       orient="auto"
       refY="0"
       refX="0"
       id="StopL-3-8-9-5"
       style="overflow:visible"
       inkscape:isstock="true">
      <path
         inkscape:connector-curvature="0"
         id="path4857-8-0-2-0"
         d="M 0,5.65 V -5.65"
         style="fill:none;fill-opacity:0.75;fill-rule:evenodd;stroke:#000000;stroke-width:1.00000003pt;stroke-opacity:1"
         transform="scale(0.8)" />
    </marker>
    <marker
       inkscape:stockid="StopL"
       orient="auto"
       refY="0"
       refX="0"
       id="marker7598"
       style="overflow:visible"
       inkscape:isstock="true">
      <path
         inkscape:connector-curvature="0"
         id="path7596"
         d="M 0,5.65 V -5.65"
         style="fill:none;fill-opacity:0.75;fill-rule:evenodd;stroke:#000000;stroke-width:1.00000003pt;stroke-opacity:1"
         transform="scale(0.8)" />
    </marker>
    <pattern
       y="0"
       x="0"
       height="6"
       width="6"
       patternUnits="userSpaceOnUse"
       id="EMFhbasepattern" />
  </defs>
  <sodipodi:namedview
     id="base"
     pagecolor="#ffffff"
     bordercolor="#666666"
     borderopacity="1.0"
     inkscape:pageopacity="0.0"
     inkscape:pageshadow="2"
     inkscape:zoom="1.979899"
     inkscape:cx="394.67888"
     inkscape:cy="95.699825"
     inkscape:document-units="mm"
     inkscape:current-layer="layer1"
     showgrid="true"
     units="px"
     inkscape:window-width="1920"
     inkscape:window-height="1017"
     inkscape:window-x="1912"
     inkscape:window-y="-8"
     inkscape:window-maximized="1"
     fit-margin-top="0"
     fit-margin-left="0"
     fit-margin-right="0"
     fit-margin-bottom="0">
    <inkscape:grid
       type="xygrid"
       id="grid4485"
       spacingx="3.96875"
       spacingy="3.96875"
       empspacing="8"
       originx="33.075721"
       originy="-94.05214" />
  </sodipodi:namedview>
  <metadata
     id="metadata5">
    <rdf:RDF>
      <cc:Work
         rdf:about="">
        <dc:format>image/svg+xml</dc:format>
        <dc:type
           rdf:resource="http://purl.org/dc/dcmitype/StillImage" />
        <dc:title></dc:title>
      </cc:Work>
    </rdf:RDF>
  </metadata>
  <g
     inkscape:label="Layer 1"
     inkscape:groupmode="layer"
     id="layer1"
     transform="translate(33.075721,-156.89592)">
    <path
       style="fill:none;stroke:#000000;stroke-width:0.07937498;stroke-linecap:butt;stroke-linejoin:miter;stroke-miterlimit:4;stroke-dasharray:0.07937499, 0.07937499;stroke-dashoffset:0;stroke-opacity:1"
       d="m -11.952968,162.06247 v 35.71875"
       id="path5424"
       inkscape:connector-curvature="0" />
    <text
       xml:space="preserve"
       style="font-style:normal;font-weight:normal;font-size:5.48753214px;line-height:1.25;font-family:sans-serif;text-align:center;letter-spacing:0px;word-spacing:0px;text-anchor:middle;fill:#000000;fill-opacity:1;stroke:none;stroke-width:0.26458332"
       x="19.887596"
       y="200.16432"
       id="text4491-1-3-4"
       transform="scale(1.0001838,0.99981621)"><tspan
         sodipodi:role="line"
         id="tspan4489-9-2-2"
         x="19.887596"
         y="200.16432"
         style="font-style:normal;font-variant:normal;font-weight:normal;font-stretch:normal;font-family:Consolas;-inkscape-font-specification:Consolas;text-align:center;text-anchor:middle;stroke-width:0.26458332">a2: ARRAY[0..15]</tspan></text>
    <text
       xml:space="preserve"
       style="font-style:normal;font-weight:normal;font-size:4.39728832px;line-height:1.25;font-family:sans-serif;letter-spacing:0px;word-spacing:0px;fill:#000000;fill-opacity:1;stroke:none;stroke-width:0.26458332"
       x="-33.088966"
       y="191.42668"
       id="text5404"
       transform="scale(1.0001838,0.99981618)"><tspan
         sodipodi:role="line"
         id="tspan5402"
         x="-33.088966"
         y="191.42668"
         style="font-style:normal;font-variant:normal;font-weight:normal;font-stretch:normal;font-family:Arial;-inkscape-font-specification:Arial;stroke-width:0.26458332">View:</tspan></text>
    <text
       xml:space="preserve"
       style="font-style:normal;font-weight:normal;font-size:4.39728832px;line-height:1.25;font-family:sans-serif;letter-spacing:0px;word-spacing:0px;fill:#000000;fill-opacity:1;stroke:none;stroke-width:0.26458332"
       x="-33.267178"
       y="171.1692"
       id="text5404-5"
       transform="scale(1.0001838,0.99981618)"><tspan
         sodipodi:role="line"
         id="tspan5402-2"
         x="-33.267178"
         y="171.1692"
         style="font-style:normal;font-variant:normal;font-weight:normal;font-stretch:normal;font-family:Arial;-inkscape-font-specification:Arial;stroke-width:0.26458332">Storage:</tspan></text>
    <path
       style="fill:none;stroke:#000000;stroke-width:0.07937501;stroke-linecap:butt;stroke-linejoin:miter;stroke-miterlimit:4;stroke-dasharray:0.07937499, 0.07937499;stroke-dashoffset:0;stroke-opacity:1"
       d="m 19.808708,162.06247 v 35.71875"
       id="path5424-7"
       inkscape:connector-curvature="0" />
    <path
       style="fill:none;stroke:#000000;stroke-width:0.07937501;stroke-linecap:butt;stroke-linejoin:miter;stroke-miterlimit:4;stroke-dasharray:0.07937499, 0.07937499;stroke-dashoffset:0;stroke-opacity:1"
       d="m 51.570382,162.06247 v 35.71875"
       id="path5424-1"
       inkscape:connector-curvature="0" />
    <path
       style="fill:none;stroke:#000000;stroke-width:0.26499999;stroke-linecap:butt;stroke-linejoin:miter;stroke-miterlimit:4;stroke-dasharray:none;stroke-opacity:1;marker-start:url(#StopL-3);marker-end:url(#StopL-3)"
       d="M -11.882894,158.09372 H 51.617104"
       id="path4686-9"
       inkscape:connector-curvature="0" />
    <path
       style="fill:none;stroke:#000000;stroke-width:0.26499999;stroke-linecap:butt;stroke-linejoin:miter;stroke-miterlimit:4;stroke-dasharray:none;stroke-opacity:1;marker-start:url(#StopL-5-5);marker-end:url(#StopL-5-5)"
       d="M -11.887252,201.75004 H 51.612747"
       id="path4686-6-5"
       inkscape:connector-curvature="0" />
    <rect
       style="fill:#f4d7d7;fill-opacity:1;stroke:#000000;stroke-width:0.26458332;stroke-linecap:square;stroke-miterlimit:4;stroke-dasharray:none;stroke-dashoffset:0;stroke-opacity:1"
       id="rect4487-0-6-1-3"
       width="7.9375005"
       height="3.9920921"
       x="-193.81248"
       y="51.570408"
       transform="rotate(-90)" />
    <rect
       style="fill:#d7f4d7;fill-opacity:1;stroke:#000000;stroke-width:0.26458332;stroke-linecap:square;stroke-miterlimit:4;stroke-dasharray:none;stroke-dashoffset:0;stroke-opacity:1"
       id="rect4487-0-6-1-3-8"
       width="7.9375005"
       height="3.9920924"
       x="-173.96873"
       y="51.570408"
       transform="rotate(-90)" />
    <text
       xml:space="preserve"
       style="font-style:normal;font-weight:normal;font-size:5.48753119px;line-height:1.25;font-family:sans-serif;text-align:center;letter-spacing:0px;word-spacing:0px;text-anchor:middle;fill:#000000;fill-opacity:1;stroke:none;stroke-width:0.26458332"
       x="19.891939"
       y="163.64508"
       id="text4491-6-6"
       transform="scale(1.0001838,0.99981623)"><tspan
         sodipodi:role="line"
         id="tspan4489-6-0"
         x="19.891939"
         y="163.64508"
         style="font-style:normal;font-variant:normal;font-weight:normal;font-stretch:normal;font-family:Consolas;-inkscape-font-specification:Consolas;text-align:center;text-anchor:middle;stroke-width:0.26458332">a: WORD</tspan></text>
    <path
       style="fill:none;stroke:#000000;stroke-width:0.26499999;stroke-linecap:butt;stroke-linejoin:miter;stroke-miterlimit:4;stroke-dasharray:none;stroke-opacity:1;marker-start:url(#StopL-3-8);marker-end:url(#StopL-3-8)"
       d="M -11.882896,158.09372 H 51.617103"
       id="path4686-9-0"
       inkscape:connector-curvature="0" />
    <text
       xml:space="preserve"
       style="font-style:normal;font-weight:normal;font-size:5.48753119px;line-height:1.25;font-family:sans-serif;text-align:center;letter-spacing:0px;word-spacing:0px;text-anchor:middle;fill:#000000;fill-opacity:1;stroke:none;stroke-width:0.26458332"
       x="53.489624"
       y="163.64508"
       id="text4491-6-6-5"
       transform="scale(1.0001838,0.99981624)"><tspan
         sodipodi:role="line"
         id="tspan4489-6-0-0"
         x="53.489624"
         y="163.64508"
         style="font-style:normal;font-variant:normal;font-weight:normal;font-stretch:normal;font-family:Consolas;-inkscape-font-specification:Consolas;text-align:center;text-anchor:middle;stroke-width:0.26458332">b</tspan></text>
    <text
       xml:space="preserve"
       style="font-style:normal;font-weight:normal;font-size:5.48753119px;line-height:1.25;font-family:sans-serif;text-align:center;letter-spacing:0px;word-spacing:0px;text-anchor:middle;fill:#000000;fill-opacity:1;stroke:none;stroke-width:0.26458332"
       x="53.489624"
       y="200.65063"
       id="text4491-6-6-5-7"
       transform="scale(1.0001838,0.99981624)"><tspan
         sodipodi:role="line"
         id="tspan4489-6-0-0-8"
         x="53.489624"
         y="200.65063"
         style="font-style:normal;font-variant:normal;font-weight:normal;font-stretch:normal;font-family:Consolas;-inkscape-font-specification:Consolas;text-align:center;text-anchor:middle;stroke-width:0.26458332">b2</tspan></text>
    <path
       style="fill:none;stroke:#000000;stroke-width:0.26499999;stroke-linecap:butt;stroke-linejoin:miter;stroke-miterlimit:4;stroke-dasharray:none;stroke-opacity:1;marker-start:url(#StopL-3-8-9);marker-end:url(#StopL-3-8-9)"
       d="M 51.593751,158.09373 H 55.5625"
       id="path4686-9-0-1"
       inkscape:connector-curvature="0" />
    <path
       style="fill:none;stroke:#000000;stroke-width:0.26499999;stroke-linecap:butt;stroke-linejoin:miter;stroke-miterlimit:4;stroke-dasharray:none;stroke-opacity:1;marker-start:url(#StopL-3-8-9-5);marker-end:url(#StopL-3-8-9-5)"
       d="M 51.593751,201.74998 H 55.5625"
       id="path4686-9-0-1-0"
       inkscape:connector-curvature="0" />
    <g
       id="g4735"
       transform="translate(-11.922333,59.531246)">
      <rect
         transform="rotate(-90)"
         y="-0.0043526818"
         x="-134.28123"
         height="63.523342"
         width="7.9375005"
         id="rect4487-0-6-1"
         style="fill:#f4d7d7;fill-opacity:1;stroke:#000000;stroke-width:0.26458332;stroke-linecap:square;stroke-miterlimit:4;stroke-dasharray:none;stroke-dashoffset:0;stroke-opacity:1" />
      <rect
         transform="rotate(-90)"
         y="-0.00437557"
         x="-134.28123"
         height="3.9702151"
         width="7.9375005"
         id="rect4487-6-1-588-2"
         style="fill:none;fill-opacity:1;stroke:#000000;stroke-width:0.07937501;stroke-linecap:square;stroke-miterlimit:4;stroke-dasharray:none;stroke-dashoffset:0;stroke-opacity:1" />
      <text
         transform="matrix(0,-0.99981623,1.0001838,0,0,0)"
         id="text4510-1-57-3"
         y="62.291672"
         x="-130.33511"
         style="font-style:normal;font-weight:normal;font-size:2.7063458px;line-height:1.25;font-family:sans-serif;text-align:center;letter-spacing:0px;word-spacing:0px;text-anchor:middle;fill:#000000;fill-opacity:1;stroke:none;stroke-width:0.26458332"
         xml:space="preserve"><tspan
           style="text-align:center;text-anchor:middle;stroke-width:0.26458332"
           y="62.291672"
           x="-130.33511"
           id="tspan4508-0-1-6"
           sodipodi:role="line">[8]</tspan></text>
      <rect
         transform="rotate(-90)"
         y="3.9658298"
         x="-134.28123"
         height="3.9702151"
         width="7.9375005"
         id="rect4487-6-1-2-3-2"
         style="fill:none;fill-opacity:1;stroke:#000000;stroke-width:0.07937501;stroke-linecap:square;stroke-miterlimit:4;stroke-dasharray:none;stroke-dashoffset:0;stroke-opacity:1" />
      <rect
         transform="rotate(-90)"
         y="7.9360332"
         x="-134.28123"
         height="3.9702151"
         width="7.9375005"
         id="rect4487-6-1-3-5-2"
         style="fill:none;fill-opacity:1;stroke:#000000;stroke-width:0.07937501;stroke-linecap:square;stroke-miterlimit:4;stroke-dasharray:none;stroke-dashoffset:0;stroke-opacity:1" />
      <rect
         transform="rotate(-90)"
         y="11.906256"
         x="-134.28123"
         height="3.9702151"
         width="7.9375005"
         id="rect4487-6-1-36-6-0"
         style="fill:none;fill-opacity:1;stroke:#000000;stroke-width:0.07937501;stroke-linecap:square;stroke-miterlimit:4;stroke-dasharray:none;stroke-dashoffset:0;stroke-opacity:1" />
      <rect
         transform="rotate(-90)"
         y="15.876478"
         x="-134.28123"
         height="3.9702151"
         width="7.9375005"
         id="rect4487-6-1-24-4-8"
         style="fill:none;fill-opacity:1;stroke:#000000;stroke-width:0.07937501;stroke-linecap:square;stroke-miterlimit:4;stroke-dasharray:none;stroke-dashoffset:0;stroke-opacity:1" />
      <rect
         transform="rotate(-90)"
         y="19.846685"
         x="-134.28123"
         height="3.9702151"
         width="7.9375005"
         id="rect4487-6-1-5-4-9"
         style="fill:none;fill-opacity:1;stroke:#000000;stroke-width:0.07937501;stroke-linecap:square;stroke-miterlimit:4;stroke-dasharray:none;stroke-dashoffset:0;stroke-opacity:1" />
      <rect
         transform="rotate(-90)"
         y="23.816887"
         x="-134.28123"
         height="3.9702151"
         width="7.9375005"
         id="rect4487-6-1-58-2-5"
         style="fill:none;fill-opacity:1;stroke:#000000;stroke-width:0.07937501;stroke-linecap:square;stroke-miterlimit:4;stroke-dasharray:none;stroke-dashoffset:0;stroke-opacity:1" />
      <rect
         transform="rotate(-90)"
         y="27.787107"
         x="-134.28123"
         height="3.9702151"
         width="7.9375005"
         id="rect4487-6-1-7-3-6"
         style="fill:none;fill-opacity:1;stroke:#000000;stroke-width:0.07937501;stroke-linecap:square;stroke-miterlimit:4;stroke-dasharray:none;stroke-dashoffset:0;stroke-opacity:1" />
      <rect
         transform="rotate(-90)"
         y="31.757318"
         x="-134.28123"
         height="3.9702151"
         width="7.9375005"
         id="rect4487-6-1-0-3-7"
         style="fill:none;fill-opacity:1;stroke:#000000;stroke-width:0.07937501;stroke-linecap:square;stroke-miterlimit:4;stroke-dasharray:none;stroke-dashoffset:0;stroke-opacity:1" />
      <rect
         transform="rotate(-90)"
         y="35.727539"
         x="-134.28123"
         height="3.9702151"
         width="7.9375005"
         id="rect4487-6-1-2-4-7-5"
         style="fill:none;fill-opacity:1;stroke:#000000;stroke-width:0.07937501;stroke-linecap:square;stroke-miterlimit:4;stroke-dasharray:none;stroke-dashoffset:0;stroke-opacity:1" />
      <rect
         transform="rotate(-90)"
         y="39.697735"
         x="-134.28123"
         height="3.9702151"
         width="7.9375005"
         id="rect4487-6-1-3-3-2-0"
         style="fill:none;fill-opacity:1;stroke:#000000;stroke-width:0.07937501;stroke-linecap:square;stroke-miterlimit:4;stroke-dasharray:none;stroke-dashoffset:0;stroke-opacity:1" />
      <rect
         transform="rotate(-90)"
         y="43.667969"
         x="-134.28123"
         height="3.9702151"
         width="7.9375005"
         id="rect4487-6-1-36-9-6-4"
         style="fill:none;fill-opacity:1;stroke:#000000;stroke-width:0.07937501;stroke-linecap:square;stroke-miterlimit:4;stroke-dasharray:none;stroke-dashoffset:0;stroke-opacity:1" />
      <rect
         transform="rotate(-90)"
         y="47.638142"
         x="-134.28123"
         height="3.9702151"
         width="7.9375005"
         id="rect4487-6-1-24-9-3-4"
         style="fill:none;fill-opacity:1;stroke:#000000;stroke-width:0.07937501;stroke-linecap:square;stroke-miterlimit:4;stroke-dasharray:none;stroke-dashoffset:0;stroke-opacity:1" />
      <rect
         transform="rotate(-90)"
         y="51.608368"
         x="-134.28123"
         height="3.9702151"
         width="7.9375005"
         id="rect4487-6-1-5-9-8-1"
         style="fill:none;fill-opacity:1;stroke:#000000;stroke-width:0.07937501;stroke-linecap:square;stroke-miterlimit:4;stroke-dasharray:none;stroke-dashoffset:0;stroke-opacity:1" />
      <rect
         transform="rotate(-90)"
         y="55.578541"
         x="-134.28123"
         height="3.9702151"
         width="7.9375005"
         id="rect4487-6-1-58-3-7-3"
         style="fill:none;fill-opacity:1;stroke:#000000;stroke-width:0.07937501;stroke-linecap:square;stroke-miterlimit:4;stroke-dasharray:none;stroke-dashoffset:0;stroke-opacity:1" />
      <rect
         transform="rotate(-90)"
         y="59.548775"
         x="-134.28123"
         height="3.9702151"
         width="7.9375005"
         id="rect4487-6-1-7-9-9-0"
         style="fill:none;fill-opacity:1;stroke:#000000;stroke-width:0.07937501;stroke-linecap:square;stroke-miterlimit:4;stroke-dasharray:none;stroke-dashoffset:0;stroke-opacity:1" />
      <text
         transform="matrix(0,-0.99981623,1.0001838,0,0,0)"
         id="text4510-1-5-8-5"
         y="2.7494438"
         x="-130.33511"
         style="font-style:normal;font-weight:normal;font-size:2.7063458px;line-height:1.25;font-family:sans-serif;text-align:center;letter-spacing:0px;word-spacing:0px;text-anchor:middle;fill:#000000;fill-opacity:1;stroke:none;stroke-width:0.26458332"
         xml:space="preserve"><tspan
           style="text-align:center;text-anchor:middle;stroke-width:0.26458332"
           y="2.7494438"
           x="-130.33511"
           id="tspan4508-0-9-6-0"
           sodipodi:role="line">[7]</tspan></text>
      <text
         transform="matrix(0,-0.99981623,1.0001838,0,0,0)"
         id="text4510-1-5-8-1-7"
         y="30.53582"
         x="-130.33511"
         style="font-style:normal;font-weight:normal;font-size:2.7063458px;line-height:1.25;font-family:sans-serif;text-align:center;letter-spacing:0px;word-spacing:0px;text-anchor:middle;fill:#000000;fill-opacity:1;stroke:none;stroke-width:0.26458332"
         xml:space="preserve"><tspan
           style="text-align:center;text-anchor:middle;stroke-width:0.26458332"
           y="30.53582"
           x="-130.33511"
           id="tspan4508-0-9-6-6-8"
           sodipodi:role="line">[0]</tspan></text>
      <text
         transform="matrix(0,-0.99981623,1.0001838,0,0,0)"
         id="text4510-1-5-8-1-2-4"
         y="34.50531"
         x="-130.33511"
         style="font-style:normal;font-weight:normal;font-size:2.7063458px;line-height:1.25;font-family:sans-serif;text-align:center;letter-spacing:0px;word-spacing:0px;text-anchor:middle;fill:#000000;fill-opacity:1;stroke:none;stroke-width:0.26458332"
         xml:space="preserve"><tspan
           style="text-align:center;text-anchor:middle;stroke-width:0.26458332"
           y="34.50531"
           x="-130.33511"
           id="tspan4508-0-9-6-6-7-6"
           sodipodi:role="line">[15]</tspan></text>
    </g>
    <path
       id="path4740"
       d="m -11.906016,173.96867 v -7.93744 h 63.49953 v 7.93744 z"
       style="fill:#d7f4d7;fill-opacity:1;fill-rule:nonzero;stroke:#000000;stroke-width:0.25399813px;stroke-linecap:square;stroke-linejoin:miter;stroke-miterlimit:4;stroke-dasharray:none;stroke-opacity:1"
       inkscape:connector-curvature="0" />
    <path
       id="path4742"
       d="m -9.069704,171.06886 v 0.254 h -1.69332 l 1.142991,0.55033 v 0.14816 l -1.142991,0.55033 h 1.69332 v 0.23283 h -1.968485 v -0.33866 l 1.079492,-0.52916 -1.079492,-0.508 v -0.35983 z"
       style="fill:#000000;fill-opacity:1;fill-rule:nonzero;stroke:none;stroke-width:0.26458332"
       inkscape:connector-curvature="0" />
    <path
       id="path4744"
       d="m -9.641199,169.10037 c 0.08467,0 0.148165,0.0212 0.232831,0.0635 0.0635,0.0212 0.126999,0.0847 0.190499,0.14817 0.0635,0.0635 0.105832,0.14816 0.126999,0.23283 0.04233,0.10583 0.04233,0.21166 0.04233,0.33866 0,0.14817 0,0.27517 -0.04233,0.381 -0.02117,0.127 -0.0635,0.23283 -0.105833,0.35983 h -0.338664 v -0.0212 c 0.08467,-0.10584 0.148166,-0.21167 0.190499,-0.33867 0.0635,-0.14816 0.08467,-0.254 0.08467,-0.381 0,-0.14816 -0.04233,-0.27516 -0.105833,-0.38099 -0.0635,-0.0847 -0.126999,-0.127 -0.232831,-0.127 -0.08467,0 -0.148166,0.0212 -0.190499,0.0635 -0.04233,0.0423 -0.08467,0.10583 -0.105833,0.1905 -0.02117,0.0635 -0.02117,0.14816 -0.04233,0.21166 0,0.0847 -0.02117,0.16933 -0.04233,0.254 -0.04233,0.16933 -0.105832,0.29633 -0.190498,0.381 -0.08467,0.0847 -0.211665,0.127 -0.338664,0.127 -0.169332,0 -0.317498,-0.0635 -0.42333,-0.21167 -0.105833,-0.127 -0.148166,-0.3175 -0.148166,-0.52916 0,-0.127 0.02117,-0.254 0.04233,-0.381 0.02117,-0.10583 0.0635,-0.21166 0.08467,-0.29633 h 0.317498 v 0.0212 c -0.0635,0.0635 -0.105833,0.16933 -0.148166,0.29633 -0.04233,0.10583 -0.0635,0.23283 -0.0635,0.35983 0,0.14816 0.02117,0.254 0.08467,0.33866 0.0635,0.0847 0.126999,0.127 0.211665,0.127 0.08467,0 0.148165,-0.0212 0.211665,-0.0635 0.04233,-0.0423 0.0635,-0.10583 0.105832,-0.21166 0,-0.0635 0.02117,-0.14817 0.04233,-0.254 0.02117,-0.10583 0.02117,-0.1905 0.04233,-0.254 0.04233,-0.14817 0.105833,-0.254 0.190499,-0.33866 0.0635,-0.0635 0.169332,-0.10584 0.317498,-0.10584 z"
       style="fill:#000000;fill-opacity:1;fill-rule:nonzero;stroke:none;stroke-width:0.26458332"
       inkscape:connector-curvature="0" />
    <path
       id="path4746"
       d="m -9.683532,167.19539 c 0.105832,0 0.190498,0.0212 0.253998,0.0635 0.08467,0.0212 0.148165,0.0847 0.190498,0.14816 0.0635,0.0635 0.105833,0.14817 0.126999,0.23283 0.02117,0.0847 0.04233,0.21167 0.04233,0.33867 v 0.69849 h -1.968485 v -0.57149 c 0,-0.14817 0,-0.254 0,-0.33867 0.02117,-0.0635 0.04233,-0.127 0.08467,-0.1905 0.02117,-0.0847 0.08467,-0.12699 0.126999,-0.16933 0.0635,-0.0212 0.148166,-0.0423 0.232832,-0.0423 0.08467,0 0.169332,0.0212 0.232831,0.0635 0.0635,0.0635 0.105833,0.127 0.148166,0.1905 h 0.02117 c 0.02117,-0.127 0.08467,-0.23283 0.169332,-0.29633 0.08467,-0.0847 0.211666,-0.127 0.338665,-0.127 z m -0.888994,0.44449 c -0.04233,0 -0.08467,0 -0.126999,0.0212 -0.02117,0.0212 -0.04233,0.0423 -0.0635,0.0847 -0.02117,0.0423 -0.04233,0.0847 -0.04233,0.14816 -0.02117,0.0635 -0.02117,0.127 -0.02117,0.21167 v 0.31749 h 0.571496 v -0.33866 c 0,-0.0847 0,-0.14817 0,-0.1905 -0.02117,-0.0635 -0.04233,-0.10583 -0.0635,-0.14816 -0.02117,-0.0423 -0.0635,-0.0635 -0.105832,-0.0847 -0.04233,-0.0212 -0.08467,-0.0212 -0.148166,-0.0212 z m 0.91016,-0.16933 c -0.08467,0 -0.148165,0 -0.190498,0.0423 -0.0635,0.0212 -0.08467,0.0635 -0.127,0.127 -0.02117,0.0423 -0.04233,0.0847 -0.04233,0.14817 0,0.0635 -0.02117,0.127 -0.02117,0.21166 v 0.42333 h 0.740828 v -0.35983 c 0,-0.10583 0,-0.19049 -0.02117,-0.27516 0,-0.0635 -0.02117,-0.127 -0.0635,-0.16933 -0.02117,-0.0635 -0.0635,-0.0847 -0.105833,-0.10584 -0.04233,-0.0423 -0.105832,-0.0423 -0.169332,-0.0423 z"
       style="fill:#000000;fill-opacity:1;fill-rule:nonzero;stroke:none;stroke-width:0.26458332"
       inkscape:connector-curvature="0" />
    <path
       id="path4748"
       d="m 50.937353,171.17469 v 1.24882 h -1.968487 v -0.25399 h 1.735653 v -0.99483 z"
       style="fill:#000000;fill-opacity:1;fill-rule:nonzero;stroke:none;stroke-width:0.26458332"
       inkscape:connector-curvature="0" />
    <path
       id="path4750"
       d="m 50.365855,169.48137 c 0.08467,0 0.148167,0.0212 0.232834,0.0635 0.08466,0.0423 0.148164,0.0847 0.190497,0.14817 0.0635,0.0635 0.105833,0.14816 0.127,0.25399 0.04233,0.0847 0.04233,0.1905 0.04233,0.33867 0,0.127 0,0.254 -0.02117,0.38099 -0.04233,0.10584 -0.0635,0.21167 -0.127,0.33867 h -0.317498 v -0.0212 c 0.0635,-0.10583 0.148167,-0.21166 0.190498,-0.33866 0.04233,-0.127 0.0635,-0.254 0.0635,-0.35983 0,-0.16933 -0.04233,-0.29633 -0.08467,-0.381 -0.0635,-0.10583 -0.148164,-0.14817 -0.253997,-0.14817 -0.08467,0 -0.148164,0.0212 -0.190498,0.0635 -0.04233,0.0423 -0.08467,0.10584 -0.105833,0.1905 0,0.0847 -0.02117,0.14817 -0.04233,0.23283 0,0.0635 -0.02117,0.14817 -0.04233,0.23284 -0.04233,0.16933 -0.08467,0.31749 -0.190497,0.40216 -0.08467,0.0635 -0.1905,0.10583 -0.338664,0.10583 -0.169333,0 -0.296331,-0.0635 -0.402164,-0.1905 -0.105833,-0.14816 -0.169333,-0.31749 -0.169333,-0.52916 0,-0.14816 0.02117,-0.27516 0.04233,-0.381 0.02117,-0.127 0.0635,-0.23283 0.105833,-0.31749 h 0.296331 v 0.0212 c -0.0635,0.0847 -0.105833,0.16933 -0.148164,0.29633 -0.04233,0.127 -0.0635,0.254 -0.0635,0.381 0,0.127 0.02117,0.254 0.08466,0.33867 0.0635,0.0847 0.127,0.12699 0.232833,0.12699 0.0635,0 0.126998,-0.0212 0.190498,-0.0635 0.04233,-0.0423 0.08467,-0.12699 0.105833,-0.23283 0,-0.0635 0.02117,-0.127 0.04233,-0.23283 0.02117,-0.10583 0.04233,-0.1905 0.04233,-0.27516 0.04233,-0.14817 0.10583,-0.254 0.190497,-0.3175 0.0635,-0.0847 0.1905,-0.127 0.317497,-0.127 z"
       style="fill:#000000;fill-opacity:1;fill-rule:nonzero;stroke:none;stroke-width:0.26458332"
       inkscape:connector-curvature="0" />
    <path
       id="path4752"
       d="m 50.323522,167.57638 c 0.105833,0 0.1905,0.0212 0.254,0.0635 0.08466,0.0423 0.148164,0.0847 0.190497,0.14817 0.0635,0.0847 0.105834,0.14816 0.127,0.254 0.02117,0.0847 0.04233,0.1905 0.04233,0.33866 v 0.6985 h -1.968483 v -0.59267 c 0,-0.14816 0,-0.25399 0.02117,-0.31749 0,-0.0847 0.02117,-0.14817 0.0635,-0.21167 0.02117,-0.0635 0.08467,-0.127 0.148166,-0.14816 0.04233,-0.0423 0.126998,-0.0635 0.211664,-0.0635 0.08467,0 0.169331,0.0212 0.232831,0.0847 0.0635,0.0423 0.127,0.10583 0.148167,0.1905 h 0.02117 c 0.02117,-0.14816 0.08467,-0.254 0.169331,-0.3175 0.08467,-0.0847 0.211667,-0.127 0.338664,-0.127 z m -0.888992,0.4445 c -0.04233,0 -0.08467,0.0212 -0.105833,0.0212 -0.04233,0.0212 -0.0635,0.0423 -0.08467,0.0847 -0.02116,0.0423 -0.04233,0.0847 -0.04233,0.14817 0,0.0635 -0.02117,0.127 -0.02117,0.21166 v 0.3175 h 0.571494 v -0.33866 c 0,-0.0847 0,-0.14817 0,-0.1905 -0.02117,-0.0423 -0.04233,-0.0847 -0.0635,-0.127 -0.02117,-0.0423 -0.0635,-0.0847 -0.105833,-0.10583 -0.04233,0 -0.08466,-0.0212 -0.148164,-0.0212 z m 0.910159,-0.16933 c -0.08466,0 -0.148164,0.0212 -0.190498,0.0423 -0.04233,0.0212 -0.08467,0.0635 -0.127,0.127 -0.02117,0.0423 -0.04233,0.10583 -0.04233,0.14817 0,0.0635 0,0.14816 0,0.23283 v 0.40216 h 0.719661 v -0.33866 c 0,-0.127 0,-0.21167 -0.02117,-0.27517 0,-0.0847 -0.02117,-0.14816 -0.0635,-0.1905 -0.02117,-0.0423 -0.0635,-0.0847 -0.105833,-0.10583 -0.04233,-0.0212 -0.105833,-0.0423 -0.169333,-0.0423 z"
       style="fill:#000000;fill-opacity:1;fill-rule:nonzero;stroke:none;stroke-width:0.26458332"
       inkscape:connector-curvature="0" />
    <path
       id="path4754"
       d="m 19.84375,166.03123 v 7.93744"
       style="fill:none;stroke:#000000;stroke-width:0.08466604px;stroke-linecap:butt;stroke-linejoin:miter;stroke-miterlimit:4;stroke-dasharray:none;stroke-opacity:1"
       inkscape:connector-curvature="0" />
  </g>
</svg>
