digraph G {
	vars_declaration_pseudonode_network [
		label="VARIABLES\lIX0.0 = false\lQW0 = 0\lDB1/out = 0\lDB2/out = 0\l__assertion_error = 0\lEoC = false\l",
		fillcolor="lightgray", shape="rectangle"];
	subgraph clusterverificationLoop_VerificationLoop {
		node [style="filled"];
		style=bold;
		color="black";
		fontsize=10;
		ranksep=0.4;
		
		label="verificationLoop.VerificationLoop";
		
		annotations_pseudonode_verificationLoop_VerificationLoop [
			label="ANNOTATIONS",
			fontsize=9, margin="0.04,0.04", fillcolor="white", shape="rectangle", style="dashed"];
		
		init_verificationLoop_VerificationLoop [label="init", color="black", fillcolor="cadetblue1", peripheries=2, shape="ellipse"];
		end_verificationLoop_VerificationLoop [label="end", color="black", fillcolor="cadetblue1", style=bold, shape="ellipse"];
		loop_start_verificationLoop_VerificationLoop [label="loop_start", color="black", fillcolor="white", shape="ellipse"];
		callEnd_verificationLoop_VerificationLoop [label="callEnd", color="black", fillcolor="white", shape="ellipse"];
		prepare_EoC_verificationLoop_VerificationLoop [label="prepare_EoC", color="black", fillcolor="cadetblue1", shape="ellipse"];
		verificationLoop_VerificationLoop_l3_verificationLoop_VerificationLoop [label="verificationLoop.VerificationLoop_l3", color="black", fillcolor="cadetblue1", shape="ellipse"];
		verificationLoop_VerificationLoop_end_verificationLoop_VerificationLoop [label="verificationLoop.VerificationLoop_end", color="black", fillcolor="cadetblue1", shape="ellipse"];
		verificationLoop_VerificationLoop_OB1_init_verificationLoop_VerificationLoop [label="verificationLoop.VerificationLoop_OB1_init", color="black", fillcolor="white", shape="ellipse"];
		verificationLoop_VerificationLoop_OB1_l5_verificationLoop_VerificationLoop [label="verificationLoop.VerificationLoop_OB1_l5", color="black", fillcolor="white", shape="ellipse"];
		verificationLoop_VerificationLoop_OB1_l51_verificationLoop_VerificationLoop [label="verificationLoop.VerificationLoop_OB1_l51", color="black", fillcolor="white", shape="ellipse"];
		init_verificationLoop_VerificationLoop -> loop_start_verificationLoop_VerificationLoop [color="black", label=""];
		loop_start_verificationLoop_VerificationLoop -> verificationLoop_VerificationLoop_OB1_init_verificationLoop_VerificationLoop [color="black", label="IX0.0 := NONDETERMINISTIC of bool"];
		callEnd_verificationLoop_VerificationLoop -> prepare_EoC_verificationLoop_VerificationLoop [color="blue", label="EoC := true (*)"];
		prepare_EoC_verificationLoop_VerificationLoop -> loop_start_verificationLoop_VerificationLoop [color="blue", label="EoC := false (*)"];
		verificationLoop_VerificationLoop_l3_verificationLoop_VerificationLoop -> verificationLoop_VerificationLoop_end_verificationLoop_VerificationLoop [color="black", label="[(QW0 = 0)]"];
		verificationLoop_VerificationLoop_l3_verificationLoop_VerificationLoop -> verificationLoop_VerificationLoop_end_verificationLoop_VerificationLoop [color="black", label="[(! (QW0 = 0))]\l__assertion_error := 1\l"];
		verificationLoop_VerificationLoop_OB1_init_verificationLoop_VerificationLoop -> verificationLoop_VerificationLoop_OB1_l5_verificationLoop_VerificationLoop [color="black", label="[IX0.0]\lDB1/out := 5\l"];
		verificationLoop_VerificationLoop_OB1_init_verificationLoop_VerificationLoop -> verificationLoop_VerificationLoop_OB1_l5_verificationLoop_VerificationLoop [color="black", label="[(! IX0.0)]\lDB1/out := (- 5)\l"];
		verificationLoop_VerificationLoop_OB1_l5_verificationLoop_VerificationLoop -> verificationLoop_VerificationLoop_OB1_l51_verificationLoop_VerificationLoop [color="black", label="[(! IX0.0)]\lDB2/out := 5\l"];
		verificationLoop_VerificationLoop_OB1_l5_verificationLoop_VerificationLoop -> verificationLoop_VerificationLoop_OB1_l51_verificationLoop_VerificationLoop [color="black", label="[(! (! IX0.0))]\lDB2/out := (- 5)\l"];
		verificationLoop_VerificationLoop_OB1_l51_verificationLoop_VerificationLoop -> verificationLoop_VerificationLoop_l3_verificationLoop_VerificationLoop [color="black", label="QW0 := ((unsigned int16) (DB1/out + DB2/out))"];
		verificationLoop_VerificationLoop_end_verificationLoop_VerificationLoop -> callEnd_verificationLoop_VerificationLoop [color="black", label=""];
	}
}

