digraph G {
	vars_declaration_pseudonode_network [
		label="VARIABLES\lIX0.0 = false\lQW0 = 0\lDB1/flag = false\lDB1/out = 0\lDB2/flag = false\lDB2/out = 0\l__assertion_error = 0\l",
		fillcolor="lightgray", shape="rectangle"];
	subgraph clusterverificationLoop_VerificationLoop {
		node [style="filled"];
		style=bold;
		color="black";
		fontsize=10;
		ranksep=0.4;
		
		label="verificationLoop.VerificationLoop";
		
		annotations_pseudonode_verificationLoop_VerificationLoop [
			label="ANNOTATIONS",
			fontsize=9, margin="0.04,0.04", fillcolor="white", shape="rectangle", style="dashed"];
		
		init_verificationLoop_VerificationLoop [label="init", color="black", fillcolor="cadetblue1", peripheries=2, shape="ellipse"];
		end_verificationLoop_VerificationLoop [label="end", color="black", fillcolor="cadetblue1", style=bold, shape="ellipse"];
		loop_start_verificationLoop_VerificationLoop [label="loop_start", color="black", fillcolor="white", shape="ellipse"];
		l_main_call_verificationLoop_VerificationLoop [label="l_main_call", color="black", fillcolor="white", shape="ellipse"];
		callEnd_verificationLoop_VerificationLoop [label="callEnd", color="black", fillcolor="white", shape="ellipse"];
		prepare_EoC_verificationLoop_VerificationLoop [label="prepare_EoC", color="black", fillcolor="cadetblue1", shape="ellipse"];
		verificationLoop_VerificationLoop_init_verificationLoop_VerificationLoop [label="verificationLoop.VerificationLoop_init", color="black", fillcolor="white", shape="ellipse"];
		verificationLoop_VerificationLoop_l1_verificationLoop_VerificationLoop [label="verificationLoop.VerificationLoop_l1", color="black", fillcolor="white", shape="ellipse"];
		verificationLoop_VerificationLoop_l2_verificationLoop_VerificationLoop [label="verificationLoop.VerificationLoop_l2", color="black", fillcolor="white", shape="ellipse"];
		verificationLoop_VerificationLoop_l3_verificationLoop_VerificationLoop [label="verificationLoop.VerificationLoop_l3", color="black", fillcolor="cadetblue1", shape="ellipse"];
		verificationLoop_VerificationLoop_end_verificationLoop_VerificationLoop [label="verificationLoop.VerificationLoop_end", color="black", fillcolor="cadetblue1", shape="ellipse"];
		verificationLoop_VerificationLoop_OB1_init_verificationLoop_VerificationLoop [label="verificationLoop.VerificationLoop_OB1_init", color="black", fillcolor="white", shape="ellipse"];
		verificationLoop_VerificationLoop_OB1_l1_verificationLoop_VerificationLoop [label="verificationLoop.VerificationLoop_OB1_l1", color="black", fillcolor="white", shape="ellipse"];
		verificationLoop_VerificationLoop_OB1_l2_verificationLoop_VerificationLoop [label="verificationLoop.VerificationLoop_OB1_l2", color="black", fillcolor="white", shape="ellipse"];
		verificationLoop_VerificationLoop_OB1_l3_verificationLoop_VerificationLoop [label="verificationLoop.VerificationLoop_OB1_l3", color="black", fillcolor="white", shape="ellipse"];
		verificationLoop_VerificationLoop_OB1_l4_verificationLoop_VerificationLoop [label="verificationLoop.VerificationLoop_OB1_l4", color="black", fillcolor="white", shape="ellipse"];
		verificationLoop_VerificationLoop_OB1_l5_verificationLoop_VerificationLoop [label="verificationLoop.VerificationLoop_OB1_l5", color="black", fillcolor="white", shape="ellipse"];
		verificationLoop_VerificationLoop_OB1_init1_verificationLoop_VerificationLoop [label="verificationLoop.VerificationLoop_OB1_init1", color="black", fillcolor="white", shape="ellipse"];
		verificationLoop_VerificationLoop_OB1_l11_verificationLoop_VerificationLoop [label="verificationLoop.VerificationLoop_OB1_l11", color="black", fillcolor="white", shape="ellipse"];
		verificationLoop_VerificationLoop_OB1_l21_verificationLoop_VerificationLoop [label="verificationLoop.VerificationLoop_OB1_l21", color="black", fillcolor="white", shape="ellipse"];
		verificationLoop_VerificationLoop_OB1_l31_verificationLoop_VerificationLoop [label="verificationLoop.VerificationLoop_OB1_l31", color="black", fillcolor="white", shape="ellipse"];
		verificationLoop_VerificationLoop_OB1_l41_verificationLoop_VerificationLoop [label="verificationLoop.VerificationLoop_OB1_l41", color="black", fillcolor="white", shape="ellipse"];
		verificationLoop_VerificationLoop_OB1_l51_verificationLoop_VerificationLoop [label="verificationLoop.VerificationLoop_OB1_l51", color="black", fillcolor="white", shape="ellipse"];
		init_verificationLoop_VerificationLoop -> loop_start_verificationLoop_VerificationLoop [color="black", label=""];
		loop_start_verificationLoop_VerificationLoop -> l_main_call_verificationLoop_VerificationLoop [color="black", label="IX0.0 := NONDETERMINISTIC of bool"];
		callEnd_verificationLoop_VerificationLoop -> prepare_EoC_verificationLoop_VerificationLoop [color="black", label=""];
		prepare_EoC_verificationLoop_VerificationLoop -> loop_start_verificationLoop_VerificationLoop [color="blue", label=""];
		prepare_EoC_verificationLoop_VerificationLoop -> end_verificationLoop_VerificationLoop [color="black", label="[false]"];
		verificationLoop_VerificationLoop_l2_verificationLoop_VerificationLoop -> verificationLoop_VerificationLoop_l3_verificationLoop_VerificationLoop [color="black", label="QW0 := ((unsigned int16) (DB1/out + DB2/out))"];
		verificationLoop_VerificationLoop_l3_verificationLoop_VerificationLoop -> verificationLoop_VerificationLoop_end_verificationLoop_VerificationLoop [color="black", label="[((QW0 = 0) && true)]"];
		verificationLoop_VerificationLoop_l3_verificationLoop_VerificationLoop -> verificationLoop_VerificationLoop_end_verificationLoop_VerificationLoop [color="black", label="[(! (QW0 = 0))]\l__assertion_error := 1\l"];
		verificationLoop_VerificationLoop_OB1_init_verificationLoop_VerificationLoop -> verificationLoop_VerificationLoop_OB1_l1_verificationLoop_VerificationLoop [color="black", label="[DB1/flag]"];
		verificationLoop_VerificationLoop_OB1_l1_verificationLoop_VerificationLoop -> verificationLoop_VerificationLoop_OB1_l2_verificationLoop_VerificationLoop [color="black", label="DB1/out := 5"];
		verificationLoop_VerificationLoop_OB1_init_verificationLoop_VerificationLoop -> verificationLoop_VerificationLoop_OB1_l3_verificationLoop_VerificationLoop [color="black", label="[ELSE]"];
		verificationLoop_VerificationLoop_OB1_l3_verificationLoop_VerificationLoop -> verificationLoop_VerificationLoop_OB1_l4_verificationLoop_VerificationLoop [color="black", label="DB1/out := (- 5)"];
		verificationLoop_VerificationLoop_OB1_l2_verificationLoop_VerificationLoop -> verificationLoop_VerificationLoop_OB1_l5_verificationLoop_VerificationLoop [color="black", label=""];
		verificationLoop_VerificationLoop_OB1_l4_verificationLoop_VerificationLoop -> verificationLoop_VerificationLoop_OB1_l5_verificationLoop_VerificationLoop [color="black", label=""];
		verificationLoop_VerificationLoop_init_verificationLoop_VerificationLoop -> verificationLoop_VerificationLoop_OB1_init_verificationLoop_VerificationLoop [color="black", label="DB1/flag := IX0.0"];
		verificationLoop_VerificationLoop_OB1_l5_verificationLoop_VerificationLoop -> verificationLoop_VerificationLoop_l1_verificationLoop_VerificationLoop [color="black", label=""];
		verificationLoop_VerificationLoop_OB1_init1_verificationLoop_VerificationLoop -> verificationLoop_VerificationLoop_OB1_l11_verificationLoop_VerificationLoop [color="black", label="[DB2/flag]"];
		verificationLoop_VerificationLoop_OB1_l11_verificationLoop_VerificationLoop -> verificationLoop_VerificationLoop_OB1_l21_verificationLoop_VerificationLoop [color="black", label="DB2/out := 5"];
		verificationLoop_VerificationLoop_OB1_init1_verificationLoop_VerificationLoop -> verificationLoop_VerificationLoop_OB1_l31_verificationLoop_VerificationLoop [color="black", label="[ELSE]"];
		verificationLoop_VerificationLoop_OB1_l31_verificationLoop_VerificationLoop -> verificationLoop_VerificationLoop_OB1_l41_verificationLoop_VerificationLoop [color="black", label="DB2/out := (- 5)"];
		verificationLoop_VerificationLoop_OB1_l21_verificationLoop_VerificationLoop -> verificationLoop_VerificationLoop_OB1_l51_verificationLoop_VerificationLoop [color="black", label=""];
		verificationLoop_VerificationLoop_OB1_l41_verificationLoop_VerificationLoop -> verificationLoop_VerificationLoop_OB1_l51_verificationLoop_VerificationLoop [color="black", label=""];
		verificationLoop_VerificationLoop_l1_verificationLoop_VerificationLoop -> verificationLoop_VerificationLoop_OB1_init1_verificationLoop_VerificationLoop [color="black", label="DB2/flag := (! IX0.0)"];
		verificationLoop_VerificationLoop_OB1_l51_verificationLoop_VerificationLoop -> verificationLoop_VerificationLoop_l2_verificationLoop_VerificationLoop [color="black", label=""];
		l_main_call_verificationLoop_VerificationLoop -> verificationLoop_VerificationLoop_init_verificationLoop_VerificationLoop [color="black", label=""];
		verificationLoop_VerificationLoop_end_verificationLoop_VerificationLoop -> callEnd_verificationLoop_VerificationLoop [color="black", label=""];
	}
}

