digraph G {
	vars_declaration_pseudonode_network [
		label="VARIABLES\lIX0.0 = false\lQW0 = 0\lDB1/flag = false\lDB1/out = 0\lDB2/flag = false\lDB2/out = 0\l__assertion_error = 0\l",
		fillcolor="lightgray", shape="rectangle"];
	subgraph clusterverificationLoop_VerificationLoop {
		node [style="filled"];
		style=bold;
		color="black";
		fontsize=10;
		ranksep=0.4;
		
		label="verificationLoop.VerificationLoop";
		
		annotations_pseudonode_verificationLoop_VerificationLoop [
			label="ANNOTATIONS",
			fontsize=9, margin="0.04,0.04", fillcolor="white", shape="rectangle", style="dashed"];
		
		init_verificationLoop_VerificationLoop [label="init", color="black", fillcolor="cadetblue1", peripheries=2, shape="ellipse"];
		end_verificationLoop_VerificationLoop [label="end", color="black", fillcolor="cadetblue1", style=bold, shape="ellipse"];
		loop_start_verificationLoop_VerificationLoop [label="loop_start", color="black", fillcolor="white", shape="ellipse"];
		l_main_call_verificationLoop_VerificationLoop [label="l_main_call", color="black", fillcolor="white", shape="ellipse"];
		callEnd_verificationLoop_VerificationLoop [label="callEnd", color="black", fillcolor="white", shape="ellipse"];
		prepare_EoC_verificationLoop_VerificationLoop [label="prepare_EoC", color="black", fillcolor="cadetblue1", shape="ellipse"];
		init_verificationLoop_VerificationLoop -> loop_start_verificationLoop_VerificationLoop [color="black", label=""];
		loop_start_verificationLoop_VerificationLoop -> l_main_call_verificationLoop_VerificationLoop [color="black", label="IX0.0 := NONDETERMINISTIC of bool"];
		l_main_call_verificationLoop_VerificationLoop -> callEnd_verificationLoop_VerificationLoop [color="black", label="CALL: OB1(\l   IN:    OUT: )\l"];
		callEnd_verificationLoop_VerificationLoop -> prepare_EoC_verificationLoop_VerificationLoop [color="black", label=""];
		prepare_EoC_verificationLoop_VerificationLoop -> loop_start_verificationLoop_VerificationLoop [color="blue", label=""];
		prepare_EoC_verificationLoop_VerificationLoop -> end_verificationLoop_VerificationLoop [color="black", label="[false]"];
	}
	subgraph clusterOB1 {
		node [style="filled"];
		color="black";
		fontsize=10;
		ranksep=0.4;
		
		label="OB1";
		
		annotations_pseudonode_OB1 [
			label="ANNOTATIONS",
			fontsize=9, margin="0.04,0.04", fillcolor="white", shape="rectangle", style="dashed"];
		
		init_OB1 [label="init", color="black", fillcolor="cadetblue1", peripheries=2, shape="ellipse"];
		l1_OB1 [label="l1", color="black", fillcolor="white", shape="ellipse"];
		l2_OB1 [label="l2", color="black", fillcolor="white", shape="ellipse"];
		l3_OB1 [label="l3", color="black", fillcolor="cadetblue1", shape="ellipse"];
		end_OB1 [label="end", color="black", fillcolor="cadetblue1", style=bold, shape="ellipse"];
		init_OB1 -> l1_OB1 [color="black", label="CALL: DB1.FB1(\l   IN: DB1/flag := IX0.0\l   OUT: )\l"];
		l1_OB1 -> l2_OB1 [color="black", label="CALL: DB2.FB1(\l   IN: DB2/flag := (! IX0.0)\l   OUT: )\l"];
		l2_OB1 -> l3_OB1 [color="black", label="QW0 := ((unsigned int16) (DB1/out + DB2/out))"];
		l3_OB1 -> end_OB1 [color="black", label="[((QW0 = 0) && true)]"];
		l3_OB1 -> end_OB1 [color="black", label="[(! (QW0 = 0))]\l__assertion_error := 1\l"];
	}
	subgraph clusterDB1_FB1 {
		node [style="filled"];
		color="black";
		fontsize=10;
		ranksep=0.4;
		
		label="DB1.FB1";
		
		annotations_pseudonode_DB1_FB1 [
			label="ANNOTATIONS",
			fontsize=9, margin="0.04,0.04", fillcolor="white", shape="rectangle", style="dashed"];
		
		init_DB1_FB1 [label="init", color="black", fillcolor="cadetblue1", peripheries=2, shape="ellipse"];
		l1_DB1_FB1 [label="l1", color="black", fillcolor="white", shape="ellipse"];
		l2_DB1_FB1 [label="l2", color="black", fillcolor="white", shape="ellipse"];
		l3_DB1_FB1 [label="l3", color="black", fillcolor="white", shape="ellipse"];
		l4_DB1_FB1 [label="l4", color="black", fillcolor="white", shape="ellipse"];
		l5_DB1_FB1 [label="l5", color="black", fillcolor="white", style=bold, shape="ellipse"];
		init_DB1_FB1 -> l1_DB1_FB1 [color="black", label="[DB1/flag]"];
		l1_DB1_FB1 -> l2_DB1_FB1 [color="black", label="DB1/out := 5"];
		init_DB1_FB1 -> l3_DB1_FB1 [color="black", label="[ELSE]"];
		l3_DB1_FB1 -> l4_DB1_FB1 [color="black", label="DB1/out := (- 5)"];
		l2_DB1_FB1 -> l5_DB1_FB1 [color="black", label=""];
		l4_DB1_FB1 -> l5_DB1_FB1 [color="black", label=""];
	}
	subgraph clusterDB2_FB1 {
		node [style="filled"];
		color="black";
		fontsize=10;
		ranksep=0.4;
		
		label="DB2.FB1";
		
		annotations_pseudonode_DB2_FB1 [
			label="ANNOTATIONS",
			fontsize=9, margin="0.04,0.04", fillcolor="white", shape="rectangle", style="dashed"];
		
		init_DB2_FB1 [label="init", color="black", fillcolor="cadetblue1", peripheries=2, shape="ellipse"];
		l1_DB2_FB1 [label="l1", color="black", fillcolor="white", shape="ellipse"];
		l2_DB2_FB1 [label="l2", color="black", fillcolor="white", shape="ellipse"];
		l3_DB2_FB1 [label="l3", color="black", fillcolor="white", shape="ellipse"];
		l4_DB2_FB1 [label="l4", color="black", fillcolor="white", shape="ellipse"];
		l5_DB2_FB1 [label="l5", color="black", fillcolor="white", style=bold, shape="ellipse"];
		init_DB2_FB1 -> l1_DB2_FB1 [color="black", label="[DB2/flag]"];
		l1_DB2_FB1 -> l2_DB2_FB1 [color="black", label="DB2/out := 5"];
		init_DB2_FB1 -> l3_DB2_FB1 [color="black", label="[ELSE]"];
		l3_DB2_FB1 -> l4_DB2_FB1 [color="black", label="DB2/out := (- 5)"];
		l2_DB2_FB1 -> l5_DB2_FB1 [color="black", label=""];
		l4_DB2_FB1 -> l5_DB2_FB1 [color="black", label=""];
	}
}

