digraph G {
	vars_declaration_pseudonode_network [
		label="VARIABLES\lFuncAbs/in = 0\lFuncAbs/RET_VAL = 0\lEoC = false\l",
		fillcolor="lightgray", shape="rectangle"];
	subgraph clusterverificationLoop_VerificationLoop {
		node [style="filled"];
		style=bold;
		color="black";
		fontsize=10;
		ranksep=0.4;
		
		label="verificationLoop.VerificationLoop";
		
		annotations_pseudonode_verificationLoop_VerificationLoop [
			label="ANNOTATIONS",
			fontsize=9, margin="0.04,0.04", fillcolor="white", shape="rectangle", style="dashed"];
		
		init_verificationLoop_VerificationLoop [label="init", color="black", fillcolor="cadetblue1", peripheries=2, shape="ellipse"];
		end_verificationLoop_VerificationLoop [label="end", color="black", fillcolor="cadetblue1", style=bold, shape="ellipse"];
		loop_start_verificationLoop_VerificationLoop [label="loop_start", color="black", fillcolor="white", shape="ellipse"];
		callEnd_verificationLoop_VerificationLoop [label="callEnd", color="black", fillcolor="white", shape="ellipse"];
		prepare_EoC_verificationLoop_VerificationLoop [label="prepare_EoC", color="black", fillcolor="cadetblue1", shape="ellipse"];
		verificationLoop_VerificationLoop_init_verificationLoop_VerificationLoop [label="verificationLoop.VerificationLoop_init", color="black", fillcolor="white", shape="ellipse"];
		verificationLoop_VerificationLoop_l5_verificationLoop_VerificationLoop [label="verificationLoop.VerificationLoop_l5", color="black", fillcolor="white", shape="ellipse"];
		verificationLoop_VerificationLoop_end_verificationLoop_VerificationLoop [label="verificationLoop.VerificationLoop_end", color="black", fillcolor="cadetblue1", shape="ellipse"];
		init_verificationLoop_VerificationLoop -> loop_start_verificationLoop_VerificationLoop [color="black", label=""];
		loop_start_verificationLoop_VerificationLoop -> verificationLoop_VerificationLoop_init_verificationLoop_VerificationLoop [color="black", label="FuncAbs/in := NONDETERMINISTIC of signed int16"];
		callEnd_verificationLoop_VerificationLoop -> prepare_EoC_verificationLoop_VerificationLoop [color="blue", label="EoC := true (*)"];
		prepare_EoC_verificationLoop_VerificationLoop -> loop_start_verificationLoop_VerificationLoop [color="blue", label="EoC := false (*)"];
		verificationLoop_VerificationLoop_init_verificationLoop_VerificationLoop -> verificationLoop_VerificationLoop_l5_verificationLoop_VerificationLoop [color="black", label="[(FuncAbs/in >= 0)]\lFuncAbs/RET_VAL := FuncAbs/in\l"];
		verificationLoop_VerificationLoop_init_verificationLoop_VerificationLoop -> verificationLoop_VerificationLoop_l5_verificationLoop_VerificationLoop [color="black", label="[(! (FuncAbs/in >= 0))]\lFuncAbs/RET_VAL := (- FuncAbs/in)\l"];
		verificationLoop_VerificationLoop_l5_verificationLoop_VerificationLoop -> verificationLoop_VerificationLoop_end_verificationLoop_VerificationLoop [color="black", label=""];
		verificationLoop_VerificationLoop_end_verificationLoop_VerificationLoop -> callEnd_verificationLoop_VerificationLoop [color="black", label=""];
	}
}

