digraph G {
	subgraph cluster__global479103176 {
		node [shape="folder", style="filled"];
		//label="_global";
		_global479103176 [label="_global"];
		_global479103176 -> FuncAbs11513484003;
		FuncAbs11513484003 [label = "(F) FuncAbs1 : _global/FuncAbs", fillcolor="white" ];
		_global479103176 -> verificationLoop45325777;
		verificationLoop45325777 [label = "(F) verificationLoop : _global/VerificationLoopDS", fillcolor="white" , peripheries=2];
		_global479103176 -> EoC513432050;
		EoC513432050 [label = "(F) EoC : bool", fillcolor="white" ];
		_global479103176 -> FuncAbs585408208;
		subgraph cluster_FuncAbs585408208 {
			node [shape="folder", style="filled"];
			//label="FuncAbs";
			FuncAbs585408208 [label="FuncAbs"];
			FuncAbs585408208 -> in1659396259;
			in1659396259 [label = "(F) in : signed int16", fillcolor="white" ];
			FuncAbs585408208 -> RET_VAL1989516685;
			RET_VAL1989516685 [label = "(F) RET_VAL : signed int16", fillcolor="white" ];
			
			annotations_pseudonode_FuncAbs585408208 [
				label="ANNOTATIONS\lin : direction=INPUT\lin : PLC type=INT\l",
				fontsize=9, margin="0.04,0.04", fillcolor="white", shape="rectangle", style="dashed"];
			initamt_pseudonode_FuncAbs585408208 [
				label="INITIAL\lin := 0\lRET_VAL := 0\l",
				fontsize=9, margin="0.04,0.04", fillcolor="lightyellow", shape="rectangle", style="dashed"];
		}
		_global479103176 -> VerificationLoopDS1287728880;
		subgraph cluster_VerificationLoopDS1287728880 {
			node [shape="folder", style="filled"];
			//label="VerificationLoopDS";
			VerificationLoopDS1287728880 [label="VerificationLoopDS"];
			
			annotations_pseudonode_VerificationLoopDS1287728880 [
				label="ANNOTATIONS",
				fontsize=9, margin="0.04,0.04", fillcolor="white", shape="rectangle", style="dashed"];
			initamt_pseudonode_VerificationLoopDS1287728880 [
				label="INITIAL",
				fontsize=9, margin="0.04,0.04", fillcolor="lightyellow", shape="rectangle", style="dashed"];
		}
		
		annotations_pseudonode__global479103176 [
			label="ANNOTATIONS\lEoC : generated\l",
			fontsize=9, margin="0.04,0.04", fillcolor="white", shape="rectangle", style="dashed"];
		initamt_pseudonode__global479103176 [
			label="INITIAL\lEoC := false\l",
			fontsize=9, margin="0.04,0.04", fillcolor="lightyellow", shape="rectangle", style="dashed"];
	}
	subgraph clusterFuncAbs {
		node [style="filled"];
		color="black";
		fontsize=10;
		ranksep=0.4;
		
		label="FuncAbs : FuncAbs";
		
		annotations_pseudonode_FuncAbs [
			label="ANNOTATIONS",
			fontsize=9, margin="0.04,0.04", fillcolor="white", shape="rectangle", style="dashed"];
		
		init_FuncAbs [label="init", color="black", fillcolor="cadetblue1", peripheries=2, shape="ellipse"];
		l1_FuncAbs [label="l1", color="black", fillcolor="white", shape="ellipse"];
		l2_FuncAbs [label="l2", color="black", fillcolor="white", shape="ellipse"];
		l3_FuncAbs [label="l3", color="black", fillcolor="white", shape="ellipse"];
		l4_FuncAbs [label="l4", color="black", fillcolor="white", shape="ellipse"];
		l5_FuncAbs [label="l5", color="black", fillcolor="white", shape="ellipse"];
		end_FuncAbs [label="end", color="black", fillcolor="cadetblue1", style=bold, shape="ellipse"];
		init_FuncAbs -> l1_FuncAbs [color="black", label="[(in >= 0)]"];
		l1_FuncAbs -> l2_FuncAbs [color="black", label="RET_VAL := in"];
		init_FuncAbs -> l3_FuncAbs [color="black", label="[ELSE]"];
		l3_FuncAbs -> l4_FuncAbs [color="black", label="RET_VAL := (- in)"];
		l2_FuncAbs -> l5_FuncAbs [color="black", label=""];
		l4_FuncAbs -> l5_FuncAbs [color="black", label=""];
		l5_FuncAbs -> end_FuncAbs [color="black", label=""];
	}
	subgraph clusterVerificationLoop {
		node [style="filled"];
		style=bold;
		color="black";
		fontsize=10;
		ranksep=0.4;
		
		label="VerificationLoop : VerificationLoopDS";
		
		annotations_pseudonode_VerificationLoop [
			label="ANNOTATIONS",
			fontsize=9, margin="0.04,0.04", fillcolor="white", shape="rectangle", style="dashed"];
		
		init_VerificationLoop [label="init", color="black", fillcolor="cadetblue1", peripheries=2, shape="ellipse"];
		end_VerificationLoop [label="end", color="black", fillcolor="cadetblue1", style=bold, shape="ellipse"];
		loop_start_VerificationLoop [label="loop_start", color="black", fillcolor="white", shape="ellipse"];
		l_main_call_VerificationLoop [label="l_main_call", color="black", fillcolor="white", shape="ellipse"];
		callEnd_VerificationLoop [label="callEnd", color="black", fillcolor="white", shape="ellipse"];
		prepare_EoC_VerificationLoop [label="prepare_EoC", color="black", fillcolor="cadetblue1", shape="ellipse"];
		init_VerificationLoop -> loop_start_VerificationLoop [color="black", label=""];
		loop_start_VerificationLoop -> l_main_call_VerificationLoop [color="black", label="FuncAbs/in := NONDETERMINISTIC of signed int16"];
		l_main_call_VerificationLoop -> callEnd_VerificationLoop [color="black", label="CALL: FuncAbs:FuncAbs(\l   IN:    OUT: )\l"];
		callEnd_VerificationLoop -> prepare_EoC_VerificationLoop [color="blue", label="EoC := true (*)"];
		prepare_EoC_VerificationLoop -> loop_start_VerificationLoop [color="blue", label="EoC := false (*)"];
		prepare_EoC_VerificationLoop -> end_VerificationLoop [color="black", label="[false]"];
	}
}

